…
content(vwc_rq, as = "text") %>% 
  jsonlite::fromJSON() %>% 
  as_tibble()
```

    ## # A tibble: 10,674 × 23
    ##    uid    node_serial_no timestamp  ts_up tdr_sensor_id center_depth tdr_address
    ##    <chr>  <chr>          <chr>      <chr> <lgl>                <int> <chr>      
    ##  1 372575 nbctdwjp       2018-05-0… 2018… NA                     -15 A          
    ##  2 596942 nbctdwjp       2018-05-0… 2018… NA                     -45 B          
    ##  3 820371 nbctdwjp       2018-05-0… 2018… NA                     -80 C          
    ##  4 372584 nbctdwjp       2018-05-0… 2018… NA                     -15 A          
    ##  5 596951 nbctdwjp       2018-05-0… 2018… NA                     -45 B          
    ##  6 820380 nbctdwjp       2018-05-0… 2018… NA                     -80 C          
    ##  7 377672 nbctdwjp       2018-05-2… 2018… NA                     -15 A          
    ##  8 602139 nbctdwjp       2018-05-2… 2018… NA                     -45 B          
    ##  9 825398 nbctdwjp       2018-05-2… 2018… NA                     -80 C          
    ## 10 377692 nbctdwjp       2018-05-2… 2018… NA                     -15 A          
    ## # ℹ 10,664 more rows
    ## # ℹ 16 more variables: vwc <dbl>, soil_temp <dbl>, permittivity <dbl>,
    ## #   ec_bulk <dbl>, ec_pore_water <int>, travel_time <lgl>,
    ## #   is_vwc_outlier <lgl>, vwc_outlier_who_decided <chr>,
    ## #   vwc_outlier_comment <chr>, code <chr>, subplot <int>, serial <chr>,
    ## #   trt <chr>, treatment <chr>, time_begin <chr>, time_end <chr>
